Introduction
…
Gauging indicators

In-package gaugeIndicator() calculates the biodiversity indicators by processing ecosystem-change maps from echanges(). It can also inherit arguments in rsp2ebv() and echanges() to derive the ecosystem-change maps.

Argument metric in the function provides the name of a biodiversity indicator. By default, metric = 'area_ha' makes the function to compute ecosystem areas (hectare). Besides, the users can provide hundreds of other abbreviations available in the landscape dependency (Hesselbarth et al., 2019).  Examples of these include 'condent' and 'lsm_l_frac_mn' which make the function to compute conditional entropy (dimensionless) and mean fractal dimension index for all patches in the raster (dimensionless).

The function output is a tibble of indicators ordered according to classes in the ecological variable. This output can be visualized using the in-package plotind().

?gaugeIndicator

# computating ecosystem areas (default)
gi <- gaugeIndicator(ech, mc.cores = 2)
gi

## # A tibble: 300 x 6
##    layer level class id    metric  value
##    <chr> <chr> <dbl> <lgl> <chr>   <dbl>
##  1 eco_0 class     1 NA    area_ha 1071.
##  2 eco_0 class     2 NA    area_ha  726.
##  3 eco_0 class     3 NA    area_ha  368.
##  4 eco_0 class     4 NA    area_ha  576.
##  5 eco_0 class     5 NA    area_ha  294.
##  6 eco_0 class     6 NA    area_ha  240.
##  7 eco_0 class     7 NA    area_ha  192.
##  8 eco_0 class     8 NA    area_ha  142.
##  9 eco_0 class     9 NA    area_ha  141.
## 10 eco_0 class    10 NA    area_ha  143.
## #  with 290 more rows
…
